<svg id="windmill" xmlns="http://www.w3.org/2000/svg" width="38.484" height="38.768" viewBox="0 0 38.484 38.768">
  <circle id="Ellipse_702" data-name="Ellipse 702" cx="0.977" cy="0.977" r="0.977" transform="translate(22.46 18.261)" fill="#8892a5"/>
  <path id="Path_31616" data-name="Path 31616" d="M37.732,27.51c-.009-.013-8.719,0-8.719,0V16.13l.9.87a.752.752,0,0,0,1.173-.165l2.255-3.906a.752.752,0,0,0-.444-1.1L29.013,10.72V10a5.251,5.251,0,0,0-3.3-4.882L26.737.93a.752.752,0,0,0-.73-.93H21.5a.752.752,0,0,0-.73.93l1.021,4.185A5.251,5.251,0,0,0,18.49,10v.723l-3.884,1.111a.752.752,0,0,0-.444,1.1l2.255,3.906A.752.752,0,0,0,17.591,17l.9-.87V27.51H6.013V24.449a5.257,5.257,0,0,0,3.274-8.59A6.209,6.209,0,0,0,9.4,14.732c0-2.655-1.639-5.262-4.134-5.262s-4.134,2.612-4.134,5.262a6.209,6.209,0,0,0,.108,1.127,5.257,5.257,0,0,0,3.274,8.59V27.51H.752A.752.752,0,0,0,0,28.262v9.471a.752.752,0,0,0,.752.752H15.86a.752.752,0,1,0,0-1.5H1.5V33.749H36.981v3.232H22.624a.752.752,0,1,0,0,1.5H37.732a.752.752,0,0,0,.752-.752v-9.1C38.484,28.219,38.514,27.5,37.732,27.51ZM1.5,19.242a3.735,3.735,0,0,1,1.082-2.634.752.752,0,0,0,.2-.7,5.053,5.053,0,0,1-.151-1.176c0-2.037,1.2-3.758,2.631-3.758S7.892,12.7,7.892,14.732a5.053,5.053,0,0,1-.151,1.176.752.752,0,0,0,.2.7A3.757,3.757,0,1,1,1.5,19.242Zm27.51,8.268Zm-4.51,0V23.752a.752.752,0,0,0-1.5,0V27.51H19.994V14.676l3.758-3.634,3.758,3.634V27.51Zm5.762-12.26-3.83-3.7,5.122,1.466ZM27.51,10v.293l-2.857-.817.7-2.877A3.751,3.751,0,0,1,27.51,10ZM25.05,1.5l-1.3,5.322L22.454,1.5ZM19.994,10a3.751,3.751,0,0,1,2.155-3.4l.7,2.877-2.857.817ZM17.238,15.25l-1.292-2.238,5.122-1.466ZM18.49,27.51ZM1.5,32.245V29.013H36.981v3.232Z" transform="translate(0 0)" fill="#8892a5"/>
  <circle id="Ellipse_703" data-name="Ellipse 703" cx="0.977" cy="0.977" r="0.977" transform="translate(18.554 36.815)" fill="#8892a5"/>
</svg>
