<svg xmlns="http://www.w3.org/2000/svg" width="27" height="27" viewBox="0 0 27 27">
  <g id="Group_3294" data-name="Group 3294" transform="translate(-136 -789)">
    <g id="Group_3280" data-name="Group 3280" transform="translate(-207 638)">
      <g id="Group_484" data-name="Group 484" transform="translate(343 151)">
        <g id="Group_476" data-name="Group 476">
          <circle id="Ellipse_92" data-name="Ellipse 92" cx="13.5" cy="13.5" r="13.5" fill="rgba(52,37,22,0.08)"/>
        </g>
      </g>
    </g>
    <g id="Group_18462" data-name="Group 18462" transform="translate(-114.838 662.261)">
      <g id="Group_17939" data-name="Group 17939" transform="translate(256.913 132.498)">
        <path id="Path_31649" data-name="Path 31649" d="M264.534,132.5a7.621,7.621,0,1,0,7.621,7.621A7.621,7.621,0,0,0,264.534,132.5Zm-2.472,11.368a12.972,12.972,0,0,1,4.046-6.3,8.545,8.545,0,0,0-4.749,5.439c-1.248-4.928,5.353-6.717,6.529-6.687C267.826,136.788,268.631,144.79,262.061,143.866Z" transform="translate(-256.913 -132.498)" fill="#342516"/>
      </g>
    </g>
  </g>
</svg>
