<svg xmlns="http://www.w3.org/2000/svg" width="27" height="27" viewBox="0 0 27 27">
  <g id="Group_3301" data-name="Group 3301" transform="translate(-136 -1144)">
    <g id="Group_3284" data-name="Group 3284" transform="translate(-207 993)">
      <g id="Group_484" data-name="Group 484" transform="translate(343 151)">
        <g id="Group_476" data-name="Group 476">
          <circle id="Ellipse_92" data-name="Ellipse 92" cx="13.5" cy="13.5" r="13.5" fill="rgba(52,37,22,0.08)"/>
        </g>
      </g>
    </g>
    <g id="Group_2428" data-name="Group 2428" transform="translate(145 1152)">
      <g id="stamp" transform="translate(2.478 1.773)">
        <g id="Group_429" data-name="Group 429" transform="translate(0 4.863)">
          <path id="Path_30665" data-name="Path 30665" d="M10.75,17.5h4.559v.912H10.75Z" transform="translate(-10.75 -17.5)" fill="#342516"/>
        </g>
        <g id="Group_430" data-name="Group 430" transform="translate(0 7.294)">
          <path id="Path_30666" data-name="Path 30666" d="M10.75,21.5H14.7v.912H10.75Z" transform="translate(-10.75 -21.5)" fill="#342516"/>
        </g>
        <g id="Group_431" data-name="Group 431" transform="translate(0 2.431)">
          <path id="Path_30667" data-name="Path 30667" d="M10.75,13.5h4.559v.912H10.75Z" transform="translate(-10.75 -13.5)" fill="#342516"/>
        </g>
        <g id="Group_432" data-name="Group 432" transform="translate(0 0)">
          <path id="Path_30668" data-name="Path 30668" d="M10.75,9.5h4.559v.912H10.75Z" transform="translate(-10.75 -9.5)" fill="#342516"/>
        </g>
      </g>
      <g id="doc" transform="translate(0 0)">
        <path id="Path_30673" data-name="Path 30673" d="M10.437,11.738H3.345A1.346,1.346,0,0,1,2,10.393V1.345A1.346,1.346,0,0,1,3.345,0h7.092a1.346,1.346,0,0,1,1.345,1.345v9.048A1.346,1.346,0,0,1,10.437,11.738ZM3.345.734a.612.612,0,0,0-.611.611v9.048A.612.612,0,0,0,3.345,11h7.092a.612.612,0,0,0,.611-.611V1.345a.612.612,0,0,0-.611-.611Z" transform="translate(-2)" fill="#342516"/>
      </g>
    </g>
  </g>
</svg>
